Case Study 1 - How Does a Bike-Share Navigate Speedy Success?
…
### average of the trips by hour
cyclistic_trip_data %>%
  group_by(user_type, start_hour) %>%
  summarise(mean(trip_length)/60)

## `summarise()` has grouped output by 'user_type'. You can override using the `.groups` argument.

## # A tibble: 48 x 3
## # Groups:   user_type [2]
##    user_type start_hour `mean(trip_length)/60`
##    <chr>     <chr>                       <dbl>
##  1 casual    00                           61.1
##  2 casual    01                           71.4
##  3 casual    02                           75.1
##  4 casual    03                           91.6
##  5 casual    04                           95.8
##  6 casual    05                           46.9
##  7 casual    06                           35.3
##  8 casual    07                           27.5
##  9 casual    08                           30.2
## 10 casual    09                           38.9
## # ... with 38 more rows
…
